{"items":[{"id":98007257,"title":"«Этюды, пародии, клоунады» в культурном центре «Новослободский»","date_from":"2021-06-25 18:00:00","date_to":"2021-06-25 20:00:00","free":0,"label":null,"kind":{"id":"afisha","title":"События афиши","type":48},"image":{"id":3173129281,"title":null,"copyright":null,"original":{"id":3173129281,"title":null,"src":"/upload/newsfeed/afisha/mk_etudi(2).jpg","width":1600,"height":1067,"type":"original"},"small":{"id":3173130281,"title":null,"src":"/upload/newsfeed/afisha/mk_etudi(17).jpg","width":480,"height":320,"type":"small"},"middle":{"id":3173131281,"title":null,"src":"/upload/newsfeed/afisha/mk_etudi(13).jpg","width":800,"height":533,"type":"middle"},"big":{"id":3173132281,"title":null,"src":"/upload/newsfeed/afisha/mk_etudi(8).jpg","width":1600,"height":1067,"type":"big"},"download":{"id":3173133281,"title":null,"src":"/upload/newsfeed/afisha/mk_etudi(12).jpg","width":1600,"height":1067,"type":"download"},"thumb":{"id":3173134281,"title":null,"src":"/upload/newsfeed/afisha/mk_etudi.jpg","width":400,"height":267,"type":"thumb"},"show":{"id":3173135281,"title":null,"src":"/upload/newsfeed/afisha/mk_etudi(5).jpg","width":1200,"height":800,"type":"show"},"1x1_m":{"id":3173136281,"title":null,"src":"/upload/newsfeed/afisha/mk_etudi(15).jpg","width":800,"height":800,"type":"1x1_m"},"1x1_s":{"id":3173137281,"title":null,"src":"/upload/newsfeed/afisha/mk_etudi(3).jpg","width":480,"height":480,"type":"1x1_s"},"2x1_b":{"id":3173138281,"title":null,"src":"/upload/newsfeed/afisha/mk_etudi(14).jpg","width":1600,"height":800,"type":"2x1_b"},"2x1_m":{"id":3173139281,"title":null,"src":"/upload/newsfeed/afisha/mk_etudi(9).jpg","width":800,"height":400,"type":"2x1_m"},"2x1_s":{"id":3173140281,"title":null,"src":"/upload/newsfeed/afisha/mk_etudi(16).jpg","width":480,"height":240,"type":"2x1_s"},"3x1_b":{"id":3173141281,"title":null,"src":"/upload/newsfeed/afisha/mk_etudi(4).jpg","width":1599,"height":533,"type":"3x1_b"},"3x1_m":{"id":3173142281,"title":null,"src":"/upload/newsfeed/afisha/mk_etudi(1).jpg","width":798,"height":266,"type":"3x1_m"},"3x1_s":{"id":3173143281,"title":null,"src":"/upload/newsfeed/afisha/mk_etudi(11).jpg","width":480,"height":160,"type":"3x1_s"},"4x1_b":{"id":3173144281,"title":null,"src":"/upload/newsfeed/afisha/mk_etudi(10).jpg","width":1600,"height":400,"type":"4x1_b"},"4x1_m":{"id":3173145281,"title":null,"src":"/upload/newsfeed/afisha/mk_etudi(7).jpg","width":800,"height":200,"type":"4x1_m"},"4x1_s":{"id":3173146281,"title":null,"src":"/upload/newsfeed/afisha/mk_etudi(6).jpg","width":480,"height":120,"type":"4x1_s"}},"spheres":[{"id":80299,"title":"Спектакли","special":0,"activated":1,"priority":0}]},{"id":97981257,"title":"Посещение экспозиции Дома А.Ф. Лосева","date_from":"2021-06-16 12:00:00","date_to":"2021-06-16 19:00:00","free":1,"label":null,"kind":{"id":"afisha","title":"События афиши","type":48},"image":{"id":3173249281,"title":null,"copyright":null,"original":{"id":3173249281,"title":null,"src":"/upload/newsfeed/afisha/rQGxQ44EOy93(15).jpg","width":1600,"height":1066,"type":"original"},"small":{"id":3173250281,"title":null,"src":"/upload/newsfeed/afisha/rQGxQ44EOy93.jpg","width":480,"height":320,"type":"small"},"middle":{"id":3173251281,"title":null,"src":"/upload/newsfeed/afisha/rQGxQ44EOy93(4).jpg","width":800,"height":533,"type":"middle"},"big":{"id":3173252281,"title":null,"src":"/upload/newsfeed/afisha/rQGxQ44EOy93(9).jpg","width":1600,"height":1066,"type":"big"},"download":{"id":3173253281,"title":null,"src":"/upload/newsfeed/afisha/rQGxQ44EOy93(16).jpg","width":1600,"height":1066,"type":"download"},"thumb":{"id":3173254281,"title":null,"src":"/upload/newsfeed/afisha/rQGxQ44EOy93(7).jpg","width":400,"height":267,"type":"thumb"},"show":{"id":3173255281,"title":null,"src":"/upload/newsfeed/afisha/rQGxQ44EOy93(10).jpg","width":1200,"height":800,"type":"show"},"1x1_m":{"id":3173256281,"title":null,"src":"/upload/newsfeed/afisha/rQGxQ44EOy93(12).jpg","width":800,"height":800,"type":"1x1_m"},"1x1_s":{"id":3173257281,"title":null,"src":"/upload/newsfeed/afisha/rQGxQ44EOy93(2).jpg","width":480,"height":480,"type":"1x1_s"},"2x1_b":{"id":3173258281,"title":null,"src":"/upload/newsfeed/afisha/rQGxQ44EOy93(11).jpg","width":1600,"height":800,"type":"2x1_b"},"2x1_m":{"id":3173259281,"title":null,"src":"/upload/newsfeed/afisha/rQGxQ44EOy93(1).jpg","width":800,"height":400,"type":"2x1_m"},"2x1_s":{"id":3173260281,"title":null,"src":"/upload/newsfeed/afisha/rQGxQ44EOy93(13).jpg","width":480,"height":240,"type":"2x1_s"},"3x1_b":{"id":3173261281,"title":null,"src":"/upload/newsfeed/afisha/rQGxQ44EOy93(8).jpg","width":1599,"height":533,"type":"3x1_b"},"3x1_m":{"id":3173262281,"title":null,"src":"/upload/newsfeed/afisha/rQGxQ44EOy93(6).jpg","width":798,"height":266,"type":"3x1_m"},"3x1_s":{"id":3173263281,"title":null,"src":"/upload/newsfeed/afisha/rQGxQ44EOy93(3).jpg","width":480,"height":160,"type":"3x1_s"},"4x1_b":{"id":3173264281,"title":null,"src":"/upload/newsfeed/afisha/rQGxQ44EOy93(5).jpg","width":1600,"height":400,"type":"4x1_b"},"4x1_m":{"id":3173265281,"title":null,"src":"/upload/newsfeed/afisha/rQGxQ44EOy93(14).jpg","width":800,"height":200,"type":"4x1_m"},"4x1_s":{"id":3173266281,"title":null,"src":"/upload/newsfeed/afisha/rQGxQ44EOy93(17).jpg","width":480,"height":120,"type":"4x1_s"}},"spheres":[{"id":83299,"title":"Экскурсии","special":0,"activated":1,"priority":0}]},{"id":97975257,"title":"«История усадьбы Воронцово» в Воронцовском парке","date_from":"2021-06-27 12:50:00","date_to":"2021-06-27 14:00:00","free":0,"label":null,"kind":{"id":"afisha","title":"События афиши","type":48},"image":{"id":3173054281,"title":null,"copyright":null,"original":{"id":3173054281,"title":null,"src":"/upload/newsfeed/afisha/imageseTAzUl(4).jpg","width":1600,"height":1067,"type":"original"},"small":{"id":3173055281,"title":null,"src":"/upload/newsfeed/afisha/imageseTAzUl(12).jpg","width":480,"height":320,"type":"small"},"middle":{"id":3173056281,"title":null,"src":"/upload/newsfeed/afisha/imageseTAzUl(2).jpg","width":800,"height":533,"type":"middle"},"big":{"id":3173057281,"title":null,"src":"/upload/newsfeed/afisha/imageseTAzUl(11).jpg","width":1600,"height":1067,"type":"big"},"download":{"id":3173058281,"title":null,"src":"/upload/newsfeed/afisha/imageseTAzUl(6).jpg","width":1600,"height":1067,"type":"download"},"thumb":{"id":3173059281,"title":null,"src":"/upload/newsfeed/afisha/imageseTAzUl.jpg","width":400,"height":267,"type":"thumb"},"show":{"id":3173060281,"title":null,"src":"/upload/newsfeed/afisha/imageseTAzUl(8).jpg","width":1200,"height":800,"type":"show"},"1x1_m":{"id":3173061281,"title":null,"src":"/upload/newsfeed/afisha/imageseTAzUl(3).jpg","width":800,"height":800,"type":"1x1_m"},"1x1_s":{"id":3173062281,"title":null,"src":"/upload/newsfeed/afisha/imageseTAzUl(14).jpg","width":480,"height":480,"type":"1x1_s"},"2x1_b":{"id":3173063281,"title":null,"src":"/upload/newsfeed/afisha/imageseTAzUl(5).jpg","width":1600,"height":800,"type":"2x1_b"},"2x1_m":{"id":3173064281,"title":null,"src":"/upload/newsfeed/afisha/imageseTAzUl(7).jpg","width":800,"height":400,"type":"2x1_m"},"2x1_s":{"id":3173065281,"title":null,"src":"/upload/newsfeed/afisha/imageseTAzUl(16).jpg","width":480,"height":240,"type":"2x1_s"},"3x1_b":{"id":3173066281,"title":null,"src":"/upload/newsfeed/afisha/imageseTAzUl(15).jpg","width":1599,"height":533,"type":"3x1_b"},"3x1_m":{"id":3173067281,"title":null,"src":"/upload/newsfeed/afisha/imageseTAzUl(17).jpg","width":798,"height":266,"type":"3x1_m"},"3x1_s":{"id":3173068281,"title":null,"src":"/upload/newsfeed/afisha/imageseTAzUl(13).jpg","width":480,"height":160,"type":"3x1_s"},"4x1_b":{"id":3173069281,"title":null,"src":"/upload/newsfeed/afisha/imageseTAzUl(1).jpg","width":1600,"height":400,"type":"4x1_b"},"4x1_m":{"id":3173070281,"title":null,"src":"/upload/newsfeed/afisha/imageseTAzUl(9).jpg","width":800,"height":200,"type":"4x1_m"},"4x1_s":{"id":3173071281,"title":null,"src":"/upload/newsfeed/afisha/imageseTAzUl(10).jpg","width":480,"height":120,"type":"4x1_s"}},"spheres":[{"id":83299,"title":"Экскурсии","special":0,"activated":1,"priority":0},{"id":84299,"title":"События в парках","special":0,"activated":1,"priority":0}]},{"id":97938257,"title":"«Славянский орнамент» в культурном центре «Новослободский»","date_from":"2021-06-15 13:00:00","date_to":"2021-06-15 14:00:00","free":1,"label":null,"kind":{"id":"afisha","title":"События афиши","type":48},"image":{"id":3172490281,"title":null,"copyright":null,"original":{"id":3172490281,"title":null,"src":"/upload/newsfeed/afisha/imagesuQIrku(3).jpg","width":1600,"height":877,"type":"original"},"small":{"id":3172491281,"title":null,"src":"/upload/newsfeed/afisha/imagesuQIrku(3)(8).jpg","width":480,"height":263,"type":"small"},"middle":{"id":3172492281,"title":null,"src":"/upload/newsfeed/afisha/imagesuQIrku(3)(5).jpg","width":800,"height":439,"type":"middle"},"big":{"id":3172493281,"title":null,"src":"/upload/newsfeed/afisha/imagesuQIrku(3)(2).jpg","width":1600,"height":877,"type":"big"},"download":{"id":3172494281,"title":null,"src":"/upload/newsfeed/afisha/imagesuQIrku(3)(16).jpg","width":1600,"height":877,"type":"download"},"thumb":{"id":3172495281,"title":null,"src":"/upload/newsfeed/afisha/imagesuQIrku(3)(17).jpg","width":400,"height":219,"type":"thumb"},"show":{"id":3172496281,"title":null,"src":"/upload/newsfeed/afisha/imagesuQIrku(3)(1).jpg","width":1200,"height":658,"type":"show"},"1x1_m":{"id":3172497281,"title":null,"src":"/upload/newsfeed/afisha/imagesuQIrku(3)(9).jpg","width":719,"height":719,"type":"1x1_m"},"1x1_s":{"id":3172498281,"title":null,"src":"/upload/newsfeed/afisha/imagesuQIrku(3)(12).jpg","width":480,"height":480,"type":"1x1_s"},"2x1_b":{"id":3172499281,"title":null,"src":"/upload/newsfeed/afisha/imagesuQIrku(3)(3).jpg","width":1570,"height":785,"type":"2x1_b"},"2x1_m":{"id":3172500281,"title":null,"src":"/upload/newsfeed/afisha/imagesuQIrku(3)(6).jpg","width":800,"height":400,"type":"2x1_m"},"2x1_s":{"id":3172501281,"title":null,"src":"/upload/newsfeed/afisha/imagesuQIrku(3)(10).jpg","width":480,"height":240,"type":"2x1_s"},"3x1_b":{"id":3172502281,"title":null,"src":"/upload/newsfeed/afisha/imagesuQIrku(3)(11).jpg","width":1599,"height":533,"type":"3x1_b"},"3x1_m":{"id":3172503281,"title":null,"src":"/upload/newsfeed/afisha/imagesuQIrku(3)(13).jpg","width":798,"height":266,"type":"3x1_m"},"3x1_s":{"id":3172504281,"title":null,"src":"/upload/newsfeed/afisha/imagesuQIrku(3)(7).jpg","width":480,"height":160,"type":"3x1_s"},"4x1_b":{"id":3172505281,"title":null,"src":"/upload/newsfeed/afisha/imagesuQIrku(3)(14).jpg","width":1600,"height":400,"type":"4x1_b"},"4x1_m":{"id":3172506281,"title":null,"src":"/upload/newsfeed/afisha/imagesuQIrku(3)(4).jpg","width":800,"height":200,"type":"4x1_m"},"4x1_s":{"id":3172507281,"title":null,"src":"/upload/newsfeed/afisha/imagesuQIrku(3)(15).jpg","width":480,"height":120,"type":"4x1_s"}},"spheres":[{"id":239299,"title":"Мастер-классы","special":0,"activated":1,"priority":0}]},{"id":97933257,"title":"Экскурсия по усадьбе Боголюбова — Третьяковых","date_from":"2021-06-19 14:00:00","date_to":"2021-06-19 16:00:00","free":0,"label":null,"kind":{"id":"afisha","title":"События афиши","type":48},"image":{"id":3172383281,"title":null,"copyright":null,"original":{"id":3172383281,"title":null,"src":"/upload/newsfeed/events/images1FG1DT(3).jpg","width":1680,"height":1080,"type":"original"},"small":{"id":3172586281,"title":null,"src":"/upload/newsfeed/afisha/images1FG1DT(3)(4).jpg","width":480,"height":309,"type":"small"},"middle":{"id":3172587281,"title":null,"src":"/upload/newsfeed/afisha/images1FG1DT(3)(8).jpg","width":800,"height":514,"type":"middle"},"big":{"id":3172588281,"title":null,"src":"/upload/newsfeed/afisha/images1FG1DT(3)(16).jpg","width":1600,"height":1029,"type":"big"},"download":{"id":3172589281,"title":null,"src":"/upload/newsfeed/afisha/images1FG1DT(3)(10).jpg","width":1680,"height":1080,"type":"download"},"thumb":{"id":3172590281,"title":null,"src":"/upload/newsfeed/afisha/images1FG1DT(3)(2).jpg","width":400,"height":257,"type":"thumb"},"show":{"id":3172591281,"title":null,"src":"/upload/newsfeed/afisha/images1FG1DT(3)(14).jpg","width":1200,"height":771,"type":"show"},"1x1_m":{"id":3172592281,"title":null,"src":"/upload/newsfeed/afisha/images1FG1DT(3)(11).jpg","width":800,"height":800,"type":"1x1_m"},"1x1_s":{"id":3172593281,"title":null,"src":"/upload/newsfeed/afisha/images1FG1DT(3)(7).jpg","width":480,"height":480,"type":"1x1_s"},"2x1_b":{"id":3172594281,"title":null,"src":"/upload/newsfeed/afisha/images1FG1DT(3)(15).jpg","width":1600,"height":800,"type":"2x1_b"},"2x1_m":{"id":3172595281,"title":null,"src":"/upload/newsfeed/afisha/images1FG1DT(3)(9).jpg","width":800,"height":400,"type":"2x1_m"},"2x1_s":{"id":3172596281,"title":null,"src":"/upload/newsfeed/afisha/images1FG1DT(3)(3).jpg","width":480,"height":240,"type":"2x1_s"},"3x1_b":{"id":3172597281,"title":null,"src":"/upload/newsfeed/afisha/images1FG1DT(3)(13).jpg","width":1599,"height":533,"type":"3x1_b"},"3x1_m":{"id":3172598281,"title":null,"src":"/upload/newsfeed/afisha/images1FG1DT(3)(6).jpg","width":798,"height":266,"type":"3x1_m"},"3x1_s":{"id":3172599281,"title":null,"src":"/upload/newsfeed/afisha/images1FG1DT(3)(1).jpg","width":480,"height":160,"type":"3x1_s"},"4x1_b":{"id":3172600281,"title":null,"src":"/upload/newsfeed/afisha/images1FG1DT(3)(12).jpg","width":1600,"height":400,"type":"4x1_b"},"4x1_m":{"id":3172601281,"title":null,"src":"/upload/newsfeed/afisha/images1FG1DT(3)(5).jpg","width":800,"height":200,"type":"4x1_m"},"4x1_s":{"id":3172602281,"title":null,"src":"/upload/newsfeed/afisha/images1FG1DT(3).jpg","width":480,"height":120,"type":"4x1_s"}},"spheres":[{"id":83299,"title":"Экскурсии","special":0,"activated":1,"priority":0}]},{"id":97764257,"title":"«Яма» в Доме культуры «Ново-Переделкино»","date_from":"2021-06-19 18:00:00","date_to":"2021-06-19 19:20:00","free":0,"label":null,"kind":{"id":"afisha","title":"События афиши","type":48},"image":{"id":3172323281,"title":"Фото Е. Самарина. Mos.ru","copyright":null,"original":{"id":3172323281,"title":"Фото Е. Самарина. Mos.ru","src":"/upload/newsfeed/afisha/Yama_Samarin(7).jpg","width":1600,"height":800,"type":"original"},"small":{"id":3172324281,"title":"Фото Е. Самарина. Mos.ru","src":"/upload/newsfeed/afisha/Yama_Samarin(1).jpg","width":480,"height":240,"type":"small"},"middle":{"id":3172325281,"title":"Фото Е. Самарина. Mos.ru","src":"/upload/newsfeed/afisha/Yama_Samarin(11).jpg","width":800,"height":400,"type":"middle"},"big":{"id":3172326281,"title":"Фото Е. Самарина. Mos.ru","src":"/upload/newsfeed/afisha/Yama_Samarin(16).jpg","width":1600,"height":800,"type":"big"},"download":{"id":3172327281,"title":"Фото Е. Самарина. Mos.ru","src":"/upload/newsfeed/afisha/Yama_Samarin(3).jpg","width":1600,"height":800,"type":"download"},"thumb":{"id":3172328281,"title":"Фото Е. Самарина. Mos.ru","src":"/upload/newsfeed/afisha/Yama_Samarin.jpg","width":400,"height":200,"type":"thumb"},"show":{"id":3172329281,"title":"Фото Е. Самарина. Mos.ru","src":"/upload/newsfeed/afisha/Yama_Samarin(14).jpg","width":1200,"height":600,"type":"show"},"1x1_m":{"id":3172330281,"title":"Фото Е. Самарина. Mos.ru","src":"/upload/newsfeed/afisha/Yama_Samarin(12).jpg","width":800,"height":800,"type":"1x1_m"},"1x1_s":{"id":3172331281,"title":"Фото Е. Самарина. Mos.ru","src":"/upload/newsfeed/afisha/Yama_Samarin(9).jpg","width":480,"height":480,"type":"1x1_s"},"2x1_b":{"id":3172332281,"title":"Фото Е. Самарина. Mos.ru","src":"/upload/newsfeed/afisha/Yama_Samarin(17).jpg","width":1600,"height":800,"type":"2x1_b"},"2x1_m":{"id":3172333281,"title":"Фото Е. Самарина. Mos.ru","src":"/upload/newsfeed/afisha/Yama_Samarin(10).jpg","width":800,"height":400,"type":"2x1_m"},"2x1_s":{"id":3172334281,"title":"Фото Е. Самарина. Mos.ru","src":"/upload/newsfeed/afisha/Yama_Samarin(6).jpg","width":480,"height":240,"type":"2x1_s"},"3x1_b":{"id":3172335281,"title":"Фото Е. Самарина. Mos.ru","src":"/upload/newsfeed/afisha/Yama_Samarin(15).jpg","width":1599,"height":533,"type":"3x1_b"},"3x1_m":{"id":3172336281,"title":"Фото Е. Самарина. Mos.ru","src":"/upload/newsfeed/afisha/Yama_Samarin(8).jpg","width":798,"height":266,"type":"3x1_m"},"3x1_s":{"id":3172337281,"title":"Фото Е. Самарина. Mos.ru","src":"/upload/newsfeed/afisha/Yama_Samarin(5).jpg","width":480,"height":160,"type":"3x1_s"},"4x1_b":{"id":3172338281,"title":"Фото Е. Самарина. Mos.ru","src":"/upload/newsfeed/afisha/Yama_Samarin(13).jpg","width":1600,"height":400,"type":"4x1_b"},"4x1_m":{"id":3172339281,"title":"Фото Е. Самарина. Mos.ru","src":"/upload/newsfeed/afisha/Yama_Samarin(2).jpg","width":800,"height":200,"type":"4x1_m"},"4x1_s":{"id":3172340281,"title":"Фото Е. Самарина. Mos.ru","src":"/upload/newsfeed/afisha/Yama_Samarin(4).jpg","width":480,"height":120,"type":"4x1_s"}},"spheres":[{"id":80299,"title":"Спектакли","special":0,"activated":1,"priority":0}]},{"id":97623257,"title":"«Ожерелье Финноугории» в Московском культурном фольклорном центре под руководством Людмилы Рюминой","date_from":"2021-06-21 19:00:00","date_to":"2021-06-21 20:30:00","free":0,"label":"","kind":{"id":"afisha","title":"События афиши","type":48},"image":{"id":3172344281,"title":null,"copyright":null,"original":{"id":3172344281,"title":null,"src":"/upload/newsfeed/afisha/OjereleFinnoygorii(3).jpg","width":1600,"height":800,"type":"original"},"small":{"id":3172345281,"title":null,"src":"/upload/newsfeed/afisha/OjereleFinnoygorii(12).jpg","width":480,"height":240,"type":"small"},"middle":{"id":3172346281,"title":null,"src":"/upload/newsfeed/afisha/OjereleFinnoygorii(16).jpg","width":800,"height":400,"type":"middle"},"big":{"id":3172347281,"title":null,"src":"/upload/newsfeed/afisha/OjereleFinnoygorii(9).jpg","width":1600,"height":800,"type":"big"},"download":{"id":3172348281,"title":null,"src":"/upload/newsfeed/afisha/OjereleFinnoygorii(7).jpg","width":1600,"height":800,"type":"download"},"thumb":{"id":3172349281,"title":null,"src":"/upload/newsfeed/afisha/OjereleFinnoygorii(1).jpg","width":400,"height":200,"type":"thumb"},"show":{"id":3172350281,"title":null,"src":"/upload/newsfeed/afisha/OjereleFinnoygorii(17).jpg","width":1200,"height":600,"type":"show"},"1x1_m":{"id":3172351281,"title":null,"src":"/upload/newsfeed/afisha/OjereleFinnoygorii(11).jpg","width":800,"height":800,"type":"1x1_m"},"1x1_s":{"id":3172352281,"title":null,"src":"/upload/newsfeed/afisha/OjereleFinnoygorii(2).jpg","width":480,"height":480,"type":"1x1_s"},"2x1_b":{"id":3172353281,"title":null,"src":"/upload/newsfeed/afisha/OjereleFinnoygorii(14).jpg","width":1600,"height":800,"type":"2x1_b"},"2x1_m":{"id":3172354281,"title":null,"src":"/upload/newsfeed/afisha/OjereleFinnoygorii(13).jpg","width":800,"height":400,"type":"2x1_m"},"2x1_s":{"id":3172355281,"title":null,"src":"/upload/newsfeed/afisha/OjereleFinnoygorii.jpg","width":480,"height":240,"type":"2x1_s"},"3x1_b":{"id":3172356281,"title":null,"src":"/upload/newsfeed/afisha/OjereleFinnoygorii(8).jpg","width":1599,"height":533,"type":"3x1_b"},"3x1_m":{"id":3172357281,"title":null,"src":"/upload/newsfeed/afisha/OjereleFinnoygorii(5).jpg","width":798,"height":266,"type":"3x1_m"},"3x1_s":{"id":3172358281,"title":null,"src":"/upload/newsfeed/afisha/OjereleFinnoygorii(6).jpg","width":480,"height":160,"type":"3x1_s"},"4x1_b":{"id":3172359281,"title":null,"src":"/upload/newsfeed/afisha/OjereleFinnoygorii(10).jpg","width":1600,"height":400,"type":"4x1_b"},"4x1_m":{"id":3172360281,"title":null,"src":"/upload/newsfeed/afisha/OjereleFinnoygorii(4).jpg","width":800,"height":200,"type":"4x1_m"},"4x1_s":{"id":3172361281,"title":null,"src":"/upload/newsfeed/afisha/OjereleFinnoygorii(15).jpg","width":480,"height":120,"type":"4x1_s"}},"spheres":[{"id":78299,"title":"Концерты","special":0,"activated":1,"priority":0}]},{"id":97610257,"title":"«Путешествие в мир театра» в центре культуры «Спутник»","date_from":"2021-06-24 16:00:00","date_to":"2021-06-24 17:00:00","free":0,"label":null,"kind":{"id":"afisha","title":"События афиши","type":48},"image":{"id":3171559281,"title":"Фото Ю. Иванко. Mos.ru","copyright":null,"original":{"id":3171559281,"title":"Фото Ю. Иванко. Mos.ru","src":"/upload/newsfeed/afisha/322452kopiya(17).jpg","width":1600,"height":1068,"type":"original"},"small":{"id":3171560281,"title":"Фото Ю. Иванко. Mos.ru","src":"/upload/newsfeed/afisha/322452kopiya(2).jpg","width":480,"height":320,"type":"small"},"middle":{"id":3171561281,"title":"Фото Ю. Иванко. Mos.ru","src":"/upload/newsfeed/afisha/322452kopiya(7).jpg","width":800,"height":534,"type":"middle"},"big":{"id":3171562281,"title":"Фото Ю. Иванко. Mos.ru","src":"/upload/newsfeed/afisha/322452kopiya(15).jpg","width":1600,"height":1068,"type":"big"},"download":{"id":3171563281,"title":"Фото Ю. Иванко. Mos.ru","src":"/upload/newsfeed/afisha/322452kopiya(16).jpg","width":1600,"height":1068,"type":"download"},"thumb":{"id":3171564281,"title":"Фото Ю. Иванко. Mos.ru","src":"/upload/newsfeed/afisha/322452kopiya(10).jpg","width":400,"height":267,"type":"thumb"},"show":{"id":3171565281,"title":"Фото Ю. Иванко. Mos.ru","src":"/upload/newsfeed/afisha/322452kopiya(13).jpg","width":1200,"height":801,"type":"show"},"1x1_m":{"id":3171566281,"title":"Фото Ю. Иванко. Mos.ru","src":"/upload/newsfeed/afisha/322452kopiya(9).jpg","width":800,"height":800,"type":"1x1_m"},"1x1_s":{"id":3171567281,"title":"Фото Ю. Иванко. Mos.ru","src":"/upload/newsfeed/afisha/322452kopiya(3).jpg","width":480,"height":480,"type":"1x1_s"},"2x1_b":{"id":3171568281,"title":"Фото Ю. Иванко. Mos.ru","src":"/upload/newsfeed/afisha/322452kopiya(14).jpg","width":1600,"height":800,"type":"2x1_b"},"2x1_m":{"id":3171569281,"title":"Фото Ю. Иванко. Mos.ru","src":"/upload/newsfeed/afisha/322452kopiya(8).jpg","width":800,"height":400,"type":"2x1_m"},"2x1_s":{"id":3171570281,"title":"Фото Ю. Иванко. Mos.ru","src":"/upload/newsfeed/afisha/322452kopiya(6).jpg","width":480,"height":240,"type":"2x1_s"},"3x1_b":{"id":3171571281,"title":"Фото Ю. Иванко. Mos.ru","src":"/upload/newsfeed/afisha/322452kopiya(12).jpg","width":1599,"height":533,"type":"3x1_b"},"3x1_m":{"id":3171572281,"title":"Фото Ю. Иванко. Mos.ru","src":"/upload/newsfeed/afisha/322452kopiya(5).jpg","width":798,"height":266,"type":"3x1_m"},"3x1_s":{"id":3171573281,"title":"Фото Ю. Иванко. Mos.ru","src":"/upload/newsfeed/afisha/322452kopiya(4).jpg","width":480,"height":160,"type":"3x1_s"},"4x1_b":{"id":3171574281,"title":"Фото Ю. Иванко. Mos.ru","src":"/upload/newsfeed/afisha/322452kopiya(11).jpg","width":1600,"height":400,"type":"4x1_b"},"4x1_m":{"id":3171575281,"title":"Фото Ю. Иванко. Mos.ru","src":"/upload/newsfeed/afisha/322452kopiya(1).jpg","width":800,"height":200,"type":"4x1_m"},"4x1_s":{"id":3171576281,"title":"Фото Ю. Иванко. Mos.ru","src":"/upload/newsfeed/afisha/322452kopiya.jpg","width":480,"height":120,"type":"4x1_s"}},"spheres":[{"id":239299,"title":"Мастер-классы","special":0,"activated":1,"priority":0},{"id":305299,"title":"Для детей","special":0,"activated":1,"priority":0}]},{"id":97590257,"title":"«Подсвечник с ботаническим орнаментом» в «Арт-мастерской 19»","date_from":"2021-06-16 14:30:00","date_to":"2021-06-16 16:30:00","free":0,"label":null,"kind":{"id":"afisha","title":"События афиши","type":48},"image":{"id":3171633281,"title":null,"copyright":null,"original":{"id":3171633281,"title":null,"src":"/upload/newsfeed/afisha/imagesxAgHdR(2).jpg","width":1600,"height":908,"type":"original"},"small":{"id":3171634281,"title":null,"src":"/upload/newsfeed/afisha/imagesxAgHdR(2)(12).jpg","width":480,"height":272,"type":"small"},"middle":{"id":3171635281,"title":null,"src":"/upload/newsfeed/afisha/imagesxAgHdR(2)(14).jpg","width":800,"height":454,"type":"middle"},"big":{"id":3171636281,"title":null,"src":"/upload/newsfeed/afisha/imagesxAgHdR(2)(7).jpg","width":1600,"height":908,"type":"big"},"download":{"id":3171637281,"title":null,"src":"/upload/newsfeed/afisha/imagesxAgHdR(2)(9).jpg","width":1600,"height":908,"type":"download"},"thumb":{"id":3171638281,"title":null,"src":"/upload/newsfeed/afisha/imagesxAgHdR(2)(1).jpg","width":400,"height":227,"type":"thumb"},"show":{"id":3171639281,"title":null,"src":"/upload/newsfeed/afisha/imagesxAgHdR(2)(6).jpg","width":1200,"height":681,"type":"show"},"1x1_m":{"id":3171640281,"title":null,"src":"/upload/newsfeed/afisha/imagesxAgHdR(2)(3).jpg","width":800,"height":800,"type":"1x1_m"},"1x1_s":{"id":3171641281,"title":null,"src":"/upload/newsfeed/afisha/imagesxAgHdR(2)(2).jpg","width":480,"height":480,"type":"1x1_s"},"2x1_b":{"id":3171642281,"title":null,"src":"/upload/newsfeed/afisha/imagesxAgHdR(2)(8).jpg","width":1600,"height":800,"type":"2x1_b"},"2x1_m":{"id":3171643281,"title":null,"src":"/upload/newsfeed/afisha/imagesxAgHdR(2)(10).jpg","width":800,"height":400,"type":"2x1_m"},"2x1_s":{"id":3171644281,"title":null,"src":"/upload/newsfeed/afisha/imagesxAgHdR(2)(4).jpg","width":480,"height":240,"type":"2x1_s"},"3x1_b":{"id":3171645281,"title":null,"src":"/upload/newsfeed/afisha/imagesxAgHdR(2)(11).jpg","width":1599,"height":533,"type":"3x1_b"},"3x1_m":{"id":3171646281,"title":null,"src":"/upload/newsfeed/afisha/imagesxAgHdR(2)(13).jpg","width":798,"height":266,"type":"3x1_m"},"3x1_s":{"id":3171647281,"title":null,"src":"/upload/newsfeed/afisha/imagesxAgHdR(2)(16).jpg","width":480,"height":160,"type":"3x1_s"},"4x1_b":{"id":3171648281,"title":null,"src":"/upload/newsfeed/afisha/imagesxAgHdR(2)(5).jpg","width":1600,"height":400,"type":"4x1_b"},"4x1_m":{"id":3171649281,"title":null,"src":"/upload/newsfeed/afisha/imagesxAgHdR(2)(15).jpg","width":800,"height":200,"type":"4x1_m"},"4x1_s":{"id":3171650281,"title":null,"src":"/upload/newsfeed/afisha/imagesxAgHdR(2)(17).jpg","width":480,"height":120,"type":"4x1_s"}},"spheres":[{"id":239299,"title":"Мастер-классы","special":0,"activated":1,"priority":0}]}],"_links":{"self":{"href":"http://www.mos.ru/api/newsfeed/v4/frontend/json/ru/afisha?expand=spheres&fields=id%2Ctitle%2Clabel%2Cimage%2Cdate_from%2Cdate_to%2Ckind%2Cfree&per-page=9&sort=occurrences.date_to%2C-occurrences.date_from&page=1"},"next":{"href":"http://www.mos.ru/api/newsfeed/v4/frontend/json/ru/afisha?expand=spheres&fields=id%2Ctitle%2Clabel%2Cimage%2Cdate_from%2Cdate_to%2Ckind%2Cfree&per-page=9&sort=occurrences.date_to%2C-occurrences.date_from&page=2"},"last":{"href":"http://www.mos.ru/api/newsfeed/v4/frontend/json/ru/afisha?expand=spheres&fields=id%2Ctitle%2Clabel%2Cimage%2Cdate_from%2Cdate_to%2Ckind%2Cfree&per-page=9&sort=occurrences.date_to%2C-occurrences.date_from&page=66"}},"_meta":{"totalCount":590,"pageCount":66,"currentPage":1,"perPage":9}}